[{
  "id":0,
  "ville": "Alès",
  "nom":"Simplon Alès",
  "info":"Alès, 30100 Occitanie, France",
  "coordonnee": {
    "lat": "44.1253665",
    "long": "4.0852818"
  }
},

{ 
  "id":1,
  "ville": "Auch",
  "nom":"Simplon Auch",
  "info":"Auch, 32000 Occitanie, France",
  "coordonnee": {
    "lat": "43.6463558",
    "long": "0.5850507"
  }
},

{ 
  "id":2,
  "ville": "Bagnols-sur-Cèze",
  "nom":"Simplon Bagnols-sur-Cèze",
  "info":"188 Avenue du Commando Vigan Braquet, 30200 Bagnols-sur-Cèze, Occitanie, France",
  "coordonnee": {
    "lat": "44.160481",
    "long": "4.6235831"
  }
},

{ 
  "id":3,
  "ville": "Cahors",
  "nom":"Simplon Cahors x Greta",
  "info":"Cahors, 46000 Occitanie, France",
  "coordonnee": {
    "lat": "44.4495",
    "long": "1.4364999"
  }
},

{ 
  "id":4,
  "ville": "Carbonne",
  "nom":"Simplon Carbonne",
  "info":"Carbonne, 31390 Occitanie, France",
  "coordonnee": {
    "lat": "43.2958159",
    "long": "1.2250686"
  }
},

{ 
  "id":5,
  "ville": "Carcassonne",
  "nom":"Simplon Carcassonne",
  "info":"Carcassonne, 11000 Occitanie, France",
  "coordonnee": {
    "lat": "43.2130358",
    "long": "2.3491069"
  }
},

{ 
  "id":6,
  "ville": "Castelnau-Le-Lez",
  "nom":"Simplon Castelnau-le-Lez - Microsoft",
  "info":"Castelnau-le-Lez, 34170 Occitanie, France",
  "coordonnee": {
    "lat": "43.6393171",
    "long": "3.9133311"
  }
},

{ 
  "id":7,
  "ville": "Labège",
  "nom":"Simplon Labège",
  "info":"Labège, 31670 Occitanie, France",
  "coordonnee": {
    "lat": "43.5292828",
    "long": "1.5299721"
  }
},

{ 
  "id":8,
  "ville": "Narbonne",
  "nom":"Simplon Narbonne",
  "info":"30 Avenue Docteur Paul Pompidor, 11100 Narbonne, Occitanie, France",
  "coordonnee": {
    "lat": "43.1837661",
    "long": "3.0042121"
  }
},

{ 
  "id":9,
  "ville": "Saint-Gaudens",
  "nom":"Simplon Saint-Gaudens",
  "info":"Saint-Gaudens, 31800 Occitanie, France",
  "coordonnee": {
    "lat": "43.1077682",
    "long": "0.7247218"
  }
},

{ 
  "id":10,
  "ville": "Toulouse",
  "nom":"Simplon Toulouse",
  "info":"Toulouse, 31000 Occitanie, France",
  "coordonnee": {
    "lat": "43.6044622",
    "long": "1.4442469"
  }
}

]